            PIZZARIA & ESFIHARIA - SAO FRANCISCO
             Rua Planalto, 54 - Jardim Palmares
                TEL.: 2241-2513 / 2241-3210
        -------------------------------------------
<<<<<<< HEAD
                  2051 - 28/04/2017 00:13
=======
                   56 - 25/03/2017 17:27
>>>>>>> Primeiro commit
        ********************************************
                      CUPOM NAO FISCAL
        ********************************************
                           Itens
Cod.    Produto                       V. UN Qtd  Total       
<<<<<<< HEAD
608     SKOL                           4.00   9  36.00       
205     ESFIHA CALABRESA C/ CATUPIRY   2.00   4   8.00       
301     COXINHA DE FRANGO              2.50   3   7.50       
-------------------------------------------------------
                                        TOTAL R$ 51,50
-------------------------------------------------------


Forma Pagamento: Dinheiro

Troco: R$ 0,00

Nome: GABRIEL

Vendedor: Gerente 
=======
201     ESFIHA CARNE                   1.30  10  13.00       
204     ESFIHA QUEIJO MUSSARELA        1.50   2   3.00       
-------------------------------------------------------
                                        TOTAL R$ 16,00
-------------------------------------------------------


Forma Pagamento: Cartão de Crédito

Nome: Patricia

Vendedor: Junior Nascimento
>>>>>>> Primeiro commit
--